%YAML 1.1
%TAG !u! tag:unity3d.com,2011:
--- !u!1 &2054671680344625359
GameObject:
  m_ObjectHideFlags: 0
  m_CorrespondingSourceObject: {fileID: 0}
  m_PrefabInstance: {fileID: 0}
  m_PrefabAsset: {fileID: 0}
  serializedVersion: 6
  m_Component:
  - component: {fileID: 2054671680344625357}
  - component: {fileID: 4239754442034442390}
  m_Layer: 0
  m_Name: Zombie_GameObject
  m_TagString: Untagged
  m_Icon: {fileID: 0}
  m_NavMeshLayer: 0
  m_StaticEditorFlags: 0
  m_IsActive: 1
--- !u!4 &2054671680344625357
Transform:
  m_ObjectHideFlags: 0
  m_CorrespondingSourceObject: {fileID: 0}
  m_PrefabInstance: {fileID: 0}
  m_PrefabAsset: {fileID: 0}
  m_GameObject: {fileID: 2054671680344625359}
  m_LocalRotation: {x: 0, y: 0, z: 0, w: 1}
  m_LocalPosition: {x: 0, y: 0, z: 0}
  m_LocalScale: {x: 1, y: 1, z: 1}
  m_Children:
  - {fileID: 6483245913900221554}
  m_Father: {fileID: 0}
  m_RootOrder: 0
  m_LocalEulerAnglesHint: {x: 0, y: 0, z: 0}
--- !u!65 &4239754442034442390
BoxCollider:
  m_ObjectHideFlags: 0
  m_CorrespondingSourceObject: {fileID: 0}
  m_PrefabInstance: {fileID: 0}
  m_PrefabAsset: {fileID: 0}
  m_GameObject: {fileID: 2054671680344625359}
  m_Material: {fileID: 0}
  m_IsTrigger: 0
  m_Enabled: 1
  serializedVersion: 2
  m_Size: {x: 154.77647, y: 184.08301, z: 45.358654}
  m_Center: {x: -1.1951218, y: 184.31317, z: -0.7606678}
--- !u!1001 &2054671679323320168
PrefabInstance:
  m_ObjectHideFlags: 0
  serializedVersion: 2
  m_Modification:
    m_TransformParent: {fileID: 2054671680344625357}
    m_Modifications:
    - target: {fileID: -927199367670048503, guid: 207e529ac10061b41b3dd2b7986b7337,
        type: 3}
      propertyPath: m_Name
      value: Zombie
      objectReference: {fileID: 0}
    - target: {fileID: -4216859302048453862, guid: 207e529ac10061b41b3dd2b7986b7337,
        type: 3}
      propertyPath: m_LocalPosition.x
      value: 0
      objectReference: {fileID: 0}
    - target: {fileID: -4216859302048453862, guid: 207e529ac10061b41b3dd2b7986b7337,
        type: 3}
      propertyPath: m_LocalPosition.y
      value: 0
      objectReference: {fileID: 0}
    - target: {fileID: -4216859302048453862, guid: 207e529ac10061b41b3dd2b7986b7337,
        type: 3}
      propertyPath: m_LocalPosition.z
      value: 0
      objectReference: {fileID: 0}
    - target: {fileID: -4216859302048453862, guid: 207e529ac10061b41b3dd2b7986b7337,
        type: 3}
      propertyPath: m_LocalRotation.x
      value: -0
      objectReference: {fileID: 0}
    - target: {fileID: -4216859302048453862, guid: 207e529ac10061b41b3dd2b7986b7337,
        type: 3}
      propertyPath: m_LocalRotation.y
      value: -0
      objectReference: {fileID: 0}
    - target: {fileID: -4216859302048453862, guid: 207e529ac10061b41b3dd2b7986b7337,
        type: 3}
      propertyPath: m_LocalRotation.z
      value: -0
      objectReference: {fileID: 0}
    - target: {fileID: -4216859302048453862, guid: 207e529ac10061b41b3dd2b7986b7337,
        type: 3}
      propertyPath: m_LocalRotation.w
      value: 1
      objectReference: {fileID: 0}
    - target: {fileID: -4216859302048453862, guid: 207e529ac10061b41b3dd2b7986b7337,
        type: 3}
      propertyPath: m_RootOrder
      value: 0
      objectReference: {fileID: 0}
    - target: {fileID: -4216859302048453862, guid: 207e529ac10061b41b3dd2b7986b7337,
        type: 3}
      propertyPath: m_LocalEulerAnglesHint.x
      value: 0
      objectReference: {fileID: 0}
    - target: {fileID: -4216859302048453862, guid: 207e529ac10061b41b3dd2b7986b7337,
        type: 3}
      propertyPath: m_LocalEulerAnglesHint.y
      value: 0
      objectReference: {fileID: 0}
    - target: {fileID: -4216859302048453862, guid: 207e529ac10061b41b3dd2b7986b7337,
        type: 3}
      propertyPath: m_LocalEulerAnglesHint.z
      value: 0
      objectReference: {fileID: 0}
    - target: {fileID: -6057140222963153312, guid: 207e529ac10061b41b3dd2b7986b7337,
        type: 3}
      propertyPath: m_Controller
      value: 
      objectReference: {fileID: 9100000, guid: 2273a54379051104e87a57d95382b234, type: 2}
    - target: {fileID: -8165893814800887681, guid: 207e529ac10061b41b3dd2b7986b7337,
        type: 3}
      propertyPath: m_Materials.Array.data[0]
      value: 
      objectReference: {fileID: 2100000, guid: 634ed0b44fb8e4149876f225234cc68a, type: 2}
    - target: {fileID: -9193982484037981649, guid: 207e529ac10061b41b3dd2b7986b7337,
        type: 3}
      propertyPath: m_Materials.Array.data[0]
      value: 
      objectReference: {fileID: 2100000, guid: 634ed0b44fb8e4149876f225234cc68a, type: 2}
    - target: {fileID: 227025109924406142, guid: 207e529ac10061b41b3dd2b7986b7337,
        type: 3}
      propertyPath: m_Materials.Array.data[0]
      value: 
      objectReference: {fileID: 2100000, guid: 634ed0b44fb8e4149876f225234cc68a, type: 2}
    - target: {fileID: 4517359957583124648, guid: 207e529ac10061b41b3dd2b7986b7337,
        type: 3}
      propertyPath: m_Materials.Array.data[0]
      value: 
      objectReference: {fileID: 2100000, guid: 634ed0b44fb8e4149876f225234cc68a, type: 2}
    - target: {fileID: -4729400777445406597, guid: 207e529ac10061b41b3dd2b7986b7337,
        type: 3}
      propertyPath: m_Materials.Array.data[0]
      value: 
      objectReference: {fileID: 2100000, guid: 634ed0b44fb8e4149876f225234cc68a, type: 2}
    - target: {fileID: -4990896358806949522, guid: 207e529ac10061b41b3dd2b7986b7337,
        type: 3}
      propertyPath: m_Materials.Array.data[0]
      value: 
      objectReference: {fileID: 2100000, guid: 634ed0b44fb8e4149876f225234cc68a, type: 2}
    - target: {fileID: -5942987117289717497, guid: 207e529ac10061b41b3dd2b7986b7337,
        type: 3}
      propertyPath: m_Materials.Array.data[0]
      value: 
      objectReference: {fileID: 2100000, guid: 634ed0b44fb8e4149876f225234cc68a, type: 2}
    - target: {fileID: -5878005308058520250, guid: 207e529ac10061b41b3dd2b7986b7337,
        type: 3}
      propertyPath: m_Materials.Array.data[0]
      value: 
      objectReference: {fileID: 2100000, guid: 634ed0b44fb8e4149876f225234cc68a, type: 2}
    - target: {fileID: 2795366066843704938, guid: 207e529ac10061b41b3dd2b7986b7337,
        type: 3}
      propertyPath: m_Materials.Array.data[0]
      value: 
      objectReference: {fileID: 2100000, guid: 634ed0b44fb8e4149876f225234cc68a, type: 2}
    - target: {fileID: 2399765024821066311, guid: 207e529ac10061b41b3dd2b7986b7337,
        type: 3}
      propertyPath: m_Materials.Array.data[0]
      value: 
      objectReference: {fileID: 2100000, guid: 634ed0b44fb8e4149876f225234cc68a, type: 2}
    - target: {fileID: 2452304226689665455, guid: 207e529ac10061b41b3dd2b7986b7337,
        type: 3}
      propertyPath: m_Materials.Array.data[0]
      value: 
      objectReference: {fileID: 2100000, guid: 634ed0b44fb8e4149876f225234cc68a, type: 2}
    - target: {fileID: -6644535858828756080, guid: 207e529ac10061b41b3dd2b7986b7337,
        type: 3}
      propertyPath: m_Materials.Array.data[0]
      value: 
      objectReference: {fileID: 2100000, guid: 634ed0b44fb8e4149876f225234cc68a, type: 2}
    - target: {fileID: 6714073804238021451, guid: 207e529ac10061b41b3dd2b7986b7337,
        type: 3}
      propertyPath: m_Materials.Array.data[0]
      value: 
      objectReference: {fileID: 2100000, guid: 634ed0b44fb8e4149876f225234cc68a, type: 2}
    - target: {fileID: -127924422917513768, guid: 207e529ac10061b41b3dd2b7986b7337,
        type: 3}
      propertyPath: m_Materials.Array.data[0]
      value: 
      objectReference: {fileID: 2100000, guid: 634ed0b44fb8e4149876f225234cc68a, type: 2}
    - target: {fileID: 8645299010963195667, guid: 207e529ac10061b41b3dd2b7986b7337,
        type: 3}
      propertyPath: m_Materials.Array.data[0]
      value: 
      objectReference: {fileID: 2100000, guid: 634ed0b44fb8e4149876f225234cc68a, type: 2}
    - target: {fileID: -1531960066057661907, guid: 207e529ac10061b41b3dd2b7986b7337,
        type: 3}
      propertyPath: m_Materials.Array.data[0]
      value: 
      objectReference: {fileID: 2100000, guid: 634ed0b44fb8e4149876f225234cc68a, type: 2}
    - target: {fileID: 7415692671641681948, guid: 207e529ac10061b41b3dd2b7986b7337,
        type: 3}
      propertyPath: m_Materials.Array.data[0]
      value: 
      objectReference: {fileID: 2100000, guid: 634ed0b44fb8e4149876f225234cc68a, type: 2}
    m_RemovedComponents: []
  m_SourcePrefab: {fileID: 100100000, guid: 207e529ac10061b41b3dd2b7986b7337, type: 3}
--- !u!4 &6483245913900221554 stripped
Transform:
  m_CorrespondingSourceObject: {fileID: -4216859302048453862, guid: 207e529ac10061b41b3dd2b7986b7337,
    type: 3}
  m_PrefabInstance: {fileID: 2054671679323320168}
  m_PrefabAsset: {fileID: 0}
