%YAML 1.1
%TAG !u! tag:unity3d.com,2011:
--- !u!1 &4189285213177603455
GameObject:
  m_ObjectHideFlags: 0
  m_CorrespondingSourceObject: {fileID: 0}
  m_PrefabInstance: {fileID: 0}
  m_PrefabAsset: {fileID: 0}
  serializedVersion: 6
  m_Component:
  - component: {fileID: 1137304615129495611}
  - component: {fileID: 5917164042782729936}
  - component: {fileID: -8411270246485292332}
  m_Layer: 0
  m_Name: Prefab_Cookie
  m_TagString: Sugar
  m_Icon: {fileID: 0}
  m_NavMeshLayer: 0
  m_StaticEditorFlags: 0
  m_IsActive: 1
--- !u!4 &1137304615129495611
Transform:
  m_ObjectHideFlags: 0
  m_CorrespondingSourceObject: {fileID: 0}
  m_PrefabInstance: {fileID: 0}
  m_PrefabAsset: {fileID: 0}
  m_GameObject: {fileID: 4189285213177603455}
  m_LocalRotation: {x: 0, y: 0, z: 0, w: 1}
  m_LocalPosition: {x: 0, y: 0, z: 0}
  m_LocalScale: {x: 1, y: 1, z: 1}
  m_Children:
  - {fileID: 8942520490754838707}
  m_Father: {fileID: 0}
  m_RootOrder: 0
  m_LocalEulerAnglesHint: {x: 0, y: 0, z: 0}
--- !u!114 &5917164042782729936
MonoBehaviour:
  m_ObjectHideFlags: 0
  m_CorrespondingSourceObject: {fileID: 0}
  m_PrefabInstance: {fileID: 0}
  m_PrefabAsset: {fileID: 0}
  m_GameObject: {fileID: 4189285213177603455}
  m_Enabled: 1
  m_EditorHideFlags: 0
  m_Script: {fileID: 11500000, guid: 357a9fbda23008e4aa4541c782298dec, type: 3}
  m_Name: 
  m_EditorClassIdentifier: 
--- !u!65 &-8411270246485292332
BoxCollider:
  m_ObjectHideFlags: 0
  m_CorrespondingSourceObject: {fileID: 0}
  m_PrefabInstance: {fileID: 0}
  m_PrefabAsset: {fileID: 0}
  m_GameObject: {fileID: 4189285213177603455}
  m_Material: {fileID: 0}
  m_IsTrigger: 1
  m_Enabled: 1
  serializedVersion: 2
  m_Size: {x: 1, y: 1, z: 1}
  m_Center: {x: 0, y: 0, z: 0}
--- !u!1001 &4134449384106605481
PrefabInstance:
  m_ObjectHideFlags: 0
  serializedVersion: 2
  m_Modification:
    m_TransformParent: {fileID: 1137304615129495611}
    m_Modifications:
    - target: {fileID: -927199367670048503, guid: b4a9606966cdcb742bf8b80a8deb5f52,
        type: 3}
      propertyPath: m_Name
      value: cookie
      objectReference: {fileID: 0}
    - target: {fileID: -4216859302048453862, guid: b4a9606966cdcb742bf8b80a8deb5f52,
        type: 3}
      propertyPath: m_LocalPosition.x
      value: -0
      objectReference: {fileID: 0}
    - target: {fileID: -4216859302048453862, guid: b4a9606966cdcb742bf8b80a8deb5f52,
        type: 3}
      propertyPath: m_LocalPosition.y
      value: 0.5
      objectReference: {fileID: 0}
    - target: {fileID: -4216859302048453862, guid: b4a9606966cdcb742bf8b80a8deb5f52,
        type: 3}
      propertyPath: m_LocalPosition.z
      value: 0
      objectReference: {fileID: 0}
    - target: {fileID: -4216859302048453862, guid: b4a9606966cdcb742bf8b80a8deb5f52,
        type: 3}
      propertyPath: m_LocalRotation.x
      value: 0
      objectReference: {fileID: 0}
    - target: {fileID: -4216859302048453862, guid: b4a9606966cdcb742bf8b80a8deb5f52,
        type: 3}
      propertyPath: m_LocalRotation.y
      value: -0
      objectReference: {fileID: 0}
    - target: {fileID: -4216859302048453862, guid: b4a9606966cdcb742bf8b80a8deb5f52,
        type: 3}
      propertyPath: m_LocalRotation.z
      value: -0
      objectReference: {fileID: 0}
    - target: {fileID: -4216859302048453862, guid: b4a9606966cdcb742bf8b80a8deb5f52,
        type: 3}
      propertyPath: m_LocalRotation.w
      value: 1
      objectReference: {fileID: 0}
    - target: {fileID: -4216859302048453862, guid: b4a9606966cdcb742bf8b80a8deb5f52,
        type: 3}
      propertyPath: m_RootOrder
      value: 0
      objectReference: {fileID: 0}
    - target: {fileID: -4216859302048453862, guid: b4a9606966cdcb742bf8b80a8deb5f52,
        type: 3}
      propertyPath: m_LocalEulerAnglesHint.x
      value: 0
      objectReference: {fileID: 0}
    - target: {fileID: -4216859302048453862, guid: b4a9606966cdcb742bf8b80a8deb5f52,
        type: 3}
      propertyPath: m_LocalEulerAnglesHint.y
      value: 0
      objectReference: {fileID: 0}
    - target: {fileID: -4216859302048453862, guid: b4a9606966cdcb742bf8b80a8deb5f52,
        type: 3}
      propertyPath: m_LocalEulerAnglesHint.z
      value: 0
      objectReference: {fileID: 0}
    - target: {fileID: -4216859302048453862, guid: b4a9606966cdcb742bf8b80a8deb5f52,
        type: 3}
      propertyPath: m_LocalScale.x
      value: 0.3
      objectReference: {fileID: 0}
    - target: {fileID: -4216859302048453862, guid: b4a9606966cdcb742bf8b80a8deb5f52,
        type: 3}
      propertyPath: m_LocalScale.y
      value: 0.3
      objectReference: {fileID: 0}
    - target: {fileID: -4216859302048453862, guid: b4a9606966cdcb742bf8b80a8deb5f52,
        type: 3}
      propertyPath: m_LocalScale.z
      value: 0.3
      objectReference: {fileID: 0}
    - target: {fileID: -1504981713932161579, guid: b4a9606966cdcb742bf8b80a8deb5f52,
        type: 3}
      propertyPath: m_Materials.Array.data[0]
      value: 
      objectReference: {fileID: 2100000, guid: 22106b817af588f46958bf3a0b979be6, type: 2}
    m_RemovedComponents: []
  m_SourcePrefab: {fileID: 100100000, guid: b4a9606966cdcb742bf8b80a8deb5f52, type: 3}
--- !u!4 &8942520490754838707 stripped
Transform:
  m_CorrespondingSourceObject: {fileID: -4216859302048453862, guid: b4a9606966cdcb742bf8b80a8deb5f52,
    type: 3}
  m_PrefabInstance: {fileID: 4134449384106605481}
  m_PrefabAsset: {fileID: 0}
