%YAML 1.1
%TAG !u! tag:unity3d.com,2011:
--- !u!114 &11400000
MonoBehaviour:
  m_ObjectHideFlags: 0
  m_CorrespondingSourceObject: {fileID: 0}
  m_PrefabInstance: {fileID: 0}
  m_PrefabAsset: {fileID: 0}
  m_GameObject: {fileID: 0}
  m_Enabled: 1
  m_EditorHideFlags: 0
  m_Script: {fileID: 11500000, guid: 54d21f6ece3b46479f0c328f8c6007e0, type: 3}
  m_Name: GradientTextStartMenu
  m_EditorClassIdentifier: 
  colorMode: 2
  topLeft: {r: 0.9687022, g: 0.9811321, b: 0.5970096, a: 1}
  topRight: {r: 0.9687022, g: 0.9811321, b: 0.5970096, a: 1}
  bottomLeft: {r: 0.39404595, g: 0.7264151, b: 0.41022387, a: 1}
  bottomRight: {r: 0.39404595, g: 0.7264151, b: 0.41022387, a: 1}
