%YAML 1.1
%TAG !u! tag:unity3d.com,2011:
--- !u!1 &4189285213177603455
GameObject:
  m_ObjectHideFlags: 0
  m_CorrespondingSourceObject: {fileID: 0}
  m_PrefabInstance: {fileID: 0}
  m_PrefabAsset: {fileID: 0}
  serializedVersion: 6
  m_Component:
  - component: {fileID: 1137304615129495611}
  - component: {fileID: 3886502807992989264}
  m_Layer: 0
  m_Name: Prefab_Fish
  m_TagString: Food
  m_Icon: {fileID: 0}
  m_NavMeshLayer: 0
  m_StaticEditorFlags: 0
  m_IsActive: 1
--- !u!4 &1137304615129495611
Transform:
  m_ObjectHideFlags: 0
  m_CorrespondingSourceObject: {fileID: 0}
  m_PrefabInstance: {fileID: 0}
  m_PrefabAsset: {fileID: 0}
  m_GameObject: {fileID: 4189285213177603455}
  m_LocalRotation: {x: 0, y: 0, z: 0, w: 1}
  m_LocalPosition: {x: 0, y: 0, z: 0}
  m_LocalScale: {x: 1, y: 1, z: 1}
  m_Children:
  - {fileID: 5085076003196521185}
  m_Father: {fileID: 0}
  m_RootOrder: 0
  m_LocalEulerAnglesHint: {x: 0, y: 0, z: 0}
--- !u!114 &3886502807992989264
MonoBehaviour:
  m_ObjectHideFlags: 0
  m_CorrespondingSourceObject: {fileID: 0}
  m_PrefabInstance: {fileID: 0}
  m_PrefabAsset: {fileID: 0}
  m_GameObject: {fileID: 4189285213177603455}
  m_Enabled: 1
  m_EditorHideFlags: 0
  m_Script: {fileID: 11500000, guid: 357a9fbda23008e4aa4541c782298dec, type: 3}
  m_Name: 
  m_EditorClassIdentifier: 
--- !u!1001 &282430866175418875
PrefabInstance:
  m_ObjectHideFlags: 0
  serializedVersion: 2
  m_Modification:
    m_TransformParent: {fileID: 1137304615129495611}
    m_Modifications:
    - target: {fileID: -927199367670048503, guid: ca2f4db01d0fdde449c82f836e6f20bb,
        type: 3}
      propertyPath: m_Name
      value: fish
      objectReference: {fileID: 0}
    - target: {fileID: -4216859302048453862, guid: ca2f4db01d0fdde449c82f836e6f20bb,
        type: 3}
      propertyPath: m_LocalPosition.x
      value: -0
      objectReference: {fileID: 0}
    - target: {fileID: -4216859302048453862, guid: ca2f4db01d0fdde449c82f836e6f20bb,
        type: 3}
      propertyPath: m_LocalPosition.y
      value: 0.5
      objectReference: {fileID: 0}
    - target: {fileID: -4216859302048453862, guid: ca2f4db01d0fdde449c82f836e6f20bb,
        type: 3}
      propertyPath: m_LocalPosition.z
      value: 0
      objectReference: {fileID: 0}
    - target: {fileID: -4216859302048453862, guid: ca2f4db01d0fdde449c82f836e6f20bb,
        type: 3}
      propertyPath: m_LocalRotation.x
      value: -0.3715678
      objectReference: {fileID: 0}
    - target: {fileID: -4216859302048453862, guid: ca2f4db01d0fdde449c82f836e6f20bb,
        type: 3}
      propertyPath: m_LocalRotation.y
      value: -0.18674184
      objectReference: {fileID: 0}
    - target: {fileID: -4216859302048453862, guid: ca2f4db01d0fdde449c82f836e6f20bb,
        type: 3}
      propertyPath: m_LocalRotation.z
      value: 0.076569326
      objectReference: {fileID: 0}
    - target: {fileID: -4216859302048453862, guid: ca2f4db01d0fdde449c82f836e6f20bb,
        type: 3}
      propertyPath: m_LocalRotation.w
      value: 0.906202
      objectReference: {fileID: 0}
    - target: {fileID: -4216859302048453862, guid: ca2f4db01d0fdde449c82f836e6f20bb,
        type: 3}
      propertyPath: m_RootOrder
      value: 0
      objectReference: {fileID: 0}
    - target: {fileID: -4216859302048453862, guid: ca2f4db01d0fdde449c82f836e6f20bb,
        type: 3}
      propertyPath: m_LocalEulerAnglesHint.x
      value: -40.153004
      objectReference: {fileID: 0}
    - target: {fileID: -4216859302048453862, guid: ca2f4db01d0fdde449c82f836e6f20bb,
        type: 3}
      propertyPath: m_LocalEulerAnglesHint.y
      value: -31.149002
      objectReference: {fileID: 0}
    - target: {fileID: -4216859302048453862, guid: ca2f4db01d0fdde449c82f836e6f20bb,
        type: 3}
      propertyPath: m_LocalEulerAnglesHint.z
      value: 21.293001
      objectReference: {fileID: 0}
    - target: {fileID: -4216859302048453862, guid: ca2f4db01d0fdde449c82f836e6f20bb,
        type: 3}
      propertyPath: m_LocalScale.x
      value: 0.5
      objectReference: {fileID: 0}
    - target: {fileID: -4216859302048453862, guid: ca2f4db01d0fdde449c82f836e6f20bb,
        type: 3}
      propertyPath: m_LocalScale.y
      value: 0.5
      objectReference: {fileID: 0}
    - target: {fileID: -4216859302048453862, guid: ca2f4db01d0fdde449c82f836e6f20bb,
        type: 3}
      propertyPath: m_LocalScale.z
      value: 0.5
      objectReference: {fileID: 0}
    - target: {fileID: -1504981713932161579, guid: ca2f4db01d0fdde449c82f836e6f20bb,
        type: 3}
      propertyPath: m_Materials.Array.data[0]
      value: 
      objectReference: {fileID: 2100000, guid: 22106b817af588f46958bf3a0b979be6, type: 2}
    m_RemovedComponents: []
  m_SourcePrefab: {fileID: 100100000, guid: ca2f4db01d0fdde449c82f836e6f20bb, type: 3}
--- !u!4 &5085076003196521185 stripped
Transform:
  m_CorrespondingSourceObject: {fileID: -4216859302048453862, guid: ca2f4db01d0fdde449c82f836e6f20bb,
    type: 3}
  m_PrefabInstance: {fileID: 282430866175418875}
  m_PrefabAsset: {fileID: 0}
